[gd_scene load_steps=3 format=1]

[ext_resource path="res://scripts/game.gd" type="Script" id=1]
[ext_resource path="res://tilesets/tileset_hex.png" type="Texture" id=2]

[node name="game" type="Node"]

script/script = ExtResource( 1 )

[node name="WaterTile" type="Sprite" parent="."]

transform/pos = Vector2( 9, 11 )
texture = ExtResource( 2 )
region = true
region_rect = Rect2( 1, 0, 19, 22 )

[node name="GrassTile" type="Sprite" parent="."]

transform/pos = Vector2( 27, 11 )
texture = ExtResource( 2 )
region = true
region_rect = Rect2( 21, 0, 19, 23 )

[node name="TreeTile" type="Sprite" parent="."]

transform/pos = Vector2( 45, 11 )
texture = ExtResource( 2 )
region = true
region_rect = Rect2( 41, 0, 19, 23 )


